<?xml version="1.0" encoding="UTF-8" standalone="no"?>
<!-- Created with Inkscape (http://www.inkscape.org/) -->

<svg
   xmlns:dc="http://purl.org/dc/elements/1.1/"
   xmlns:cc="http://creativecommons.org/ns#"
   xmlns:rdf="http://www.w3.org/1999/02/22-rdf-syntax-ns#"
   xmlns:svg="http://www.w3.org/2000/svg"
   xmlns="http://www.w3.org/2000/svg"
   xmlns:xlink="http://www.w3.org/1999/xlink"
   xmlns:sodipodi="http://sodipodi.sourceforge.net/DTD/sodipodi-0.dtd"
   xmlns:inkscape="http://www.inkscape.org/namespaces/inkscape"
   version="1.1"
   width="48"
   height="48"
   id="svg3901"
   inkscape:version="0.92.3 (unknown)"
   sodipodi:docname="application-x-compressed-tar.svg">
  <sodipodi:namedview
     pagecolor="#ffffff"
     bordercolor="#666666"
     borderopacity="1"
     objecttolerance="10"
     gridtolerance="10"
     guidetolerance="10"
     inkscape:pageopacity="0"
     inkscape:pageshadow="2"
     inkscape:window-width="1920"
     inkscape:window-height="1400"
     id="namedview37"
     showgrid="false"
     inkscape:zoom="7.2407734"
     inkscape:cx="10.675925"
     inkscape:cy="19.228568"
     inkscape:window-x="0"
     inkscape:window-y="40"
     inkscape:window-maximized="1"
     inkscape:current-layer="svg3901"
     showguides="true"
     inkscape:guide-bbox="true">
    <sodipodi:guide
       orientation="1,0"
       position="9.0332032,8.178711"
       id="guide6547"
       inkscape:locked="false" />
    <sodipodi:guide
       orientation="1,0"
       position="38.964844,6.3476563"
       id="guide6549"
       inkscape:locked="false" />
  </sodipodi:namedview>
  <defs
     id="defs3903">
    <linearGradient
       x1="23.99999"
       y1="5.5641499"
       x2="23.99999"
       y2="42.110645"
       id="linearGradient3013"
       xlink:href="#linearGradient3029"
       gradientUnits="userSpaceOnUse"
       gradientTransform="matrix(0.89189189,0,0,1.1351351,2.5945999,-4.7432314)" />
    <linearGradient
       id="linearGradient3029">
      <stop
         id="stop3031"
         style="stop-color:#ffffff;stop-opacity:1"
         offset="0" />
      <stop
         id="stop3033"
         style="stop-color:#ffffff;stop-opacity:0.23529412"
         offset="0.01487851" />
      <stop
         id="stop3035"
         style="stop-color:#ffffff;stop-opacity:0.15686275"
         offset="0.98463625" />
      <stop
         id="stop3037"
         style="stop-color:#ffffff;stop-opacity:0.39215687"
         offset="1" />
    </linearGradient>
    <linearGradient
       x1="25.132275"
       y1="0.98520643"
       x2="25.132275"
       y2="47.013336"
       id="linearGradient3016"
       xlink:href="#linearGradient3600"
       gradientUnits="userSpaceOnUse"
       gradientTransform="matrix(1,0,0,0.9561695,-9.9999999e-8,-1.9149218)" />
    <linearGradient
       id="linearGradient3600">
      <stop
         id="stop3602"
         style="stop-color:#dadada;stop-opacity:1;"
         offset="0" />
      <stop
         id="stop3604"
         style="stop-color:#ffffff;stop-opacity:1;"
         offset="1" />
    </linearGradient>
    <radialGradient
       cx="605.71429"
       cy="486.64789"
       r="117.14286"
       fx="605.71429"
       fy="486.64789"
       id="radialGradient3021"
       xlink:href="#linearGradient5060"
       gradientUnits="userSpaceOnUse"
       gradientTransform="matrix(0.02303995,0,0,0.01470022,26.360882,37.040176)" />
    <linearGradient
       id="linearGradient5060">
      <stop
         id="stop5062"
         style="stop-color:#000000;stop-opacity:1"
         offset="0" />
      <stop
         id="stop5064"
         style="stop-color:#000000;stop-opacity:0"
         offset="1" />
    </linearGradient>
    <radialGradient
       cx="605.71429"
       cy="486.64789"
       r="117.14286"
       fx="605.71429"
       fy="486.64789"
       id="radialGradient3024"
       xlink:href="#linearGradient5060"
       gradientUnits="userSpaceOnUse"
       gradientTransform="matrix(-0.02303994,0,0,0.01470022,21.62311,37.040176)" />
    <linearGradient
       id="linearGradient5048">
      <stop
         id="stop5050"
         style="stop-color:#000000;stop-opacity:0"
         offset="0" />
      <stop
         id="stop5056"
         style="stop-color:#000000;stop-opacity:1"
         offset="0.5" />
      <stop
         id="stop5052"
         style="stop-color:#000000;stop-opacity:0"
         offset="1" />
    </linearGradient>
    <linearGradient
       x1="302.85715"
       y1="366.64789"
       x2="302.85715"
       y2="609.50507"
       id="linearGradient3899"
       xlink:href="#linearGradient5048"
       gradientUnits="userSpaceOnUse"
       gradientTransform="matrix(0.06732488,0,0,0.01470022,-0.3411391,37.040146)" />
    <linearGradient
       id="linearGradient3104-5">
      <stop
         id="stop3106-2"
         style="stop-color:#aaaaaa;stop-opacity:1"
         offset="0" />
      <stop
         id="stop3108-5"
         style="stop-color:#c8c8c8;stop-opacity:1"
         offset="1" />
    </linearGradient>
    <linearGradient
       x1="22.004084"
       y1="47.813133"
       x2="22.004084"
       y2="3.3638515"
       id="linearGradient3052"
       xlink:href="#linearGradient3104-5"
       gradientUnits="userSpaceOnUse"
       gradientTransform="translate(-1.982096,-3.047074)" />
    <linearGradient
       inkscape:collect="always"
       xlink:href="#linearGradient3104-5"
       id="linearGradient3015"
       gradientUnits="userSpaceOnUse"
       gradientTransform="translate(-1.982096,-3.047074)"
       x1="22.004084"
       y1="47.813133"
       x2="22.004084"
       y2="3.3638515" />
    <linearGradient
       inkscape:collect="always"
       xlink:href="#linearGradient3029"
       id="linearGradient3019"
       gradientUnits="userSpaceOnUse"
       gradientTransform="matrix(0.89189189,0,0,1.1351351,2.5945999,-4.7432314)"
       x1="23.99999"
       y1="5.5641499"
       x2="23.99999"
       y2="42.110645" />
    <linearGradient
       inkscape:collect="always"
       xlink:href="#linearGradient3600"
       id="linearGradient3022"
       gradientUnits="userSpaceOnUse"
       gradientTransform="matrix(1,0,0,0.9561695,-9.9999999e-8,-0.5399218)"
       x1="25.132275"
       y1="0.98520643"
       x2="25.132275"
       y2="47.013336" />
    <radialGradient
       inkscape:collect="always"
       xlink:href="#linearGradient5060"
       id="radialGradient3025"
       gradientUnits="userSpaceOnUse"
       gradientTransform="matrix(0.02303995,0,0,0.01470022,26.360882,38.415176)"
       cx="605.71429"
       cy="486.64789"
       fx="605.71429"
       fy="486.64789"
       r="117.14286" />
    <radialGradient
       inkscape:collect="always"
       xlink:href="#linearGradient5060"
       id="radialGradient3028"
       gradientUnits="userSpaceOnUse"
       gradientTransform="matrix(-0.02303994,0,0,0.01470022,21.62311,38.415176)"
       cx="605.71429"
       cy="486.64789"
       fx="605.71429"
       fy="486.64789"
       r="117.14286" />
    <linearGradient
       inkscape:collect="always"
       xlink:href="#linearGradient5048"
       id="linearGradient3031"
       gradientUnits="userSpaceOnUse"
       gradientTransform="matrix(0.06732488,0,0,0.01470022,-0.3411391,38.415146)"
       x1="302.85715"
       y1="366.64789"
       x2="302.85715"
       y2="609.50507" />
    <linearGradient
       inkscape:collect="always"
       xlink:href="#linearGradient3897-7"
       id="linearGradient3289"
       gradientUnits="userSpaceOnUse"
       gradientTransform="matrix(0.39056994,0,0,-0.39056994,-0.8729074,48.438192)"
       x1="91.308151"
       y1="98.191689"
       x2="95.18235"
       y2="102.06589" />
    <linearGradient
       id="linearGradient3897-7">
      <stop
         id="stop3899-4"
         style="stop-color:#fcfcfc;stop-opacity:1"
         offset="0" />
      <stop
         id="stop3907-4"
         style="stop-color:#c1c1c1;stop-opacity:1"
         offset="1" />
    </linearGradient>
    <linearGradient
       inkscape:collect="always"
       xlink:href="#linearGradient3897-7"
       id="linearGradient3807"
       gradientUnits="userSpaceOnUse"
       gradientTransform="matrix(0.56520801,0,0,-0.60266309,-19.240561,70.736731)"
       x1="91.308151"
       y1="98.191689"
       x2="95.18235"
       y2="102.06589" />
    <clipPath
       clipPathUnits="userSpaceOnUse"
       id="clipPath3823">
      <path
         sodipodi:nodetypes="cccccc"
         d="m 10.7586,0.49719902 c 5.083838,0 18.361576,0.001998 18.361576,0.001998 l 12.308735,12.55734904 3.2e-5,26.002479 c 0,0 -20.446895,0 -30.670343,0 0,-12.853941 0,-25.707883 0,-38.56182598 z"
         inkscape:connector-curvature="0"
         id="path3825"
         style="fill:#ffffff;fill-opacity:1;stroke:none;display:inline" />
    </clipPath>
    <clipPath
       clipPathUnits="userSpaceOnUse"
       id="clipPath4113">
      <path
         sodipodi:nodetypes="cccccc"
         d="m 6.4999609,1.872199 c 5.8015241,0 20.9536831,0.00228 20.9536831,0.00228 l 14.046362,14.330072 3.6e-5,29.673255 c 0,0 -23.333387,0 -35.0000811,0 0,-14.668535 0,-29.33707 0,-44.005607 z"
         inkscape:connector-curvature="0"
         id="path4115"
         style="fill:#ffffff;fill-opacity:1;stroke:none;display:inline" />
    </clipPath>
    <clipPath
       clipPathUnits="userSpaceOnUse"
       id="clipPath4160">
      <path
         sodipodi:nodetypes="cccccc"
         d="m 6.4999609,1.872199 c 5.8015241,0 20.9536831,0.00228 20.9536831,0.00228 l 14.046362,14.330072 3.6e-5,29.673255 c 0,0 -23.333387,0 -35.0000811,0 0,-14.668535 0,-29.33707 0,-44.005607 z"
         inkscape:connector-curvature="0"
         id="path4162"
         style="fill:#ffffff;fill-opacity:1;stroke:none;display:inline" />
    </clipPath>
    <linearGradient
       y2="20.895"
       x2="84.63858"
       y1="105.105"
       x1="86.132919"
       gradientTransform="matrix(0.3244803,0,0,0.3244803,3.2332655,2.5577454)"
       gradientUnits="userSpaceOnUse"
       id="linearGradient3789"
       xlink:href="#linearGradient5128"
       inkscape:collect="always" />
    <linearGradient
       y2="45"
       x2="37.201294"
       y1="1"
       x1="37.201294"
       gradientUnits="userSpaceOnUse"
       id="linearGradient3787"
       xlink:href="#linearGradient3397"
       inkscape:collect="always" />
    <linearGradient
       y2="45.017357"
       x2="20.758585"
       y1="1"
       x1="20.758585"
       gradientUnits="userSpaceOnUse"
       id="linearGradient3785"
       xlink:href="#linearGradient3309"
       inkscape:collect="always" />
    <radialGradient
       r="10.625"
       fy="4.625"
       fx="62.625"
       cy="4.625"
       cx="62.625"
       gradientTransform="matrix(2.1647059,0,0,0.7529402,-111.56471,36.517647)"
       gradientUnits="userSpaceOnUse"
       id="radialGradient3783"
       xlink:href="#linearGradient8838"
       inkscape:collect="always" />
    <linearGradient
       gradientTransform="matrix(0.3244803,0,0,0.3244803,3.2332655,2.5577454)"
       gradientUnits="userSpaceOnUse"
       xlink:href="#linearGradient5128"
       id="linearGradient2512"
       y2="20.895"
       x2="84.63858"
       y1="105.105"
       x1="86.132919" />
    <linearGradient
       id="linearGradient5128">
      <stop
         offset="0"
         style="stop-color:#acbacc;stop-opacity:1;"
         id="stop5130" />
      <stop
         offset="1"
         style="stop-color:#97a3c0;stop-opacity:1;"
         id="stop5132" />
    </linearGradient>
    <linearGradient
       gradientUnits="userSpaceOnUse"
       xlink:href="#linearGradient3309"
       id="linearGradient2515"
       y2="45.017357"
       x2="20.758585"
       y1="1"
       x1="20.758585" />
    <linearGradient
       gradientUnits="userSpaceOnUse"
       id="linearGradient3309"
       y2="122.8994"
       x2="63.9995"
       y1="3.1001"
       x1="63.9995">
      <stop
         offset="0"
         style="stop-color:#cad8ea;stop-opacity:1;"
         id="stop3311" />
      <stop
         offset="1"
         style="stop-color:#687088;stop-opacity:1;"
         id="stop3313" />
    </linearGradient>
    <linearGradient
       gradientUnits="userSpaceOnUse"
       xlink:href="#linearGradient3397"
       id="linearGradient2517"
       y2="45"
       x2="37.201294"
       y1="1"
       x1="37.201294" />
    <linearGradient
       id="linearGradient3397">
      <stop
         offset="0"
         style="stop-color:#4a5877;stop-opacity:1;"
         id="stop3399" />
      <stop
         offset="1"
         style="stop-color:#2b3249;stop-opacity:1;"
         id="stop3401" />
    </linearGradient>
    <radialGradient
       gradientTransform="matrix(2.1647059,0,0,0.7529402,-111.56471,36.517647)"
       gradientUnits="userSpaceOnUse"
       xlink:href="#linearGradient8838"
       id="radialGradient2436"
       fy="4.625"
       fx="62.625"
       r="10.625"
       cy="4.625"
       cx="62.625" />
    <linearGradient
       id="linearGradient8838">
      <stop
         offset="0"
         style="stop-color:#000000;stop-opacity:1"
         id="stop8840" />
      <stop
         offset="1"
         style="stop-color:#000000;stop-opacity:0"
         id="stop8842" />
    </linearGradient>
    <linearGradient
       inkscape:collect="always"
       id="linearGradient3124">
      <stop
         style="stop-color:#ffffff;stop-opacity:0.3"
         offset="0"
         id="stop3126" />
      <stop
         id="stop3151"
         offset="0.31784967"
         style="stop-color:#ffffff;stop-opacity:0.2" />
      <stop
         style="stop-color:#ffffff;stop-opacity:0.2"
         offset="0.7951324"
         id="stop3153" />
      <stop
         style="stop-color:#ffffff;stop-opacity:0.3"
         offset="1"
         id="stop3128" />
    </linearGradient>
    <linearGradient
       id="linearGradient3137">
      <stop
         id="stop3139"
         offset="0"
         style="stop-color:#262a19;stop-opacity:1" />
      <stop
         style="stop-color:#2f2c33;stop-opacity:1"
         offset="0.22095624"
         id="stop3141" />
      <stop
         style="stop-color:#3a3a3a;stop-opacity:1"
         offset="0.48518145"
         id="stop3143" />
      <stop
         style="stop-color:#3d3c37;stop-opacity:1"
         offset="0.76176167"
         id="stop3145" />
      <stop
         id="stop3149"
         offset="0.9575814"
         style="stop-color:#2e3122;stop-opacity:1;" />
      <stop
         id="stop3147"
         offset="1"
         style="stop-color:#001200;stop-opacity:1" />
    </linearGradient>
    <linearGradient
       id="linearGradient3644">
      <stop
         style="stop-color:#b7b4b8;stop-opacity:1"
         offset="0"
         id="stop3646" />
      <stop
         id="stop3652"
         offset="0.30463547"
         style="stop-color:#f5f5f5;stop-opacity:1;" />
      <stop
         style="stop-color:#f3f3f3;stop-opacity:1;"
         offset="0.85247308"
         id="stop3654" />
      <stop
         style="stop-color:#dcdcdc;stop-opacity:1;"
         offset="1"
         id="stop3648" />
    </linearGradient>
    <linearGradient
       inkscape:collect="always"
       id="linearGradient3721">
      <stop
         style="stop-color:#8b8d82;stop-opacity:1"
         offset="0"
         id="stop3723" />
      <stop
         style="stop-color:#9aa692;stop-opacity:0;"
         offset="1"
         id="stop3725" />
    </linearGradient>
    <linearGradient
       id="linearGradient3656">
      <stop
         style="stop-color:#f0f0f0;stop-opacity:1;"
         offset="0"
         id="stop3658" />
      <stop
         style="stop-color:#fffffd;stop-opacity:1"
         offset="1"
         id="stop3660" />
    </linearGradient>
    <linearGradient
       inkscape:collect="always"
       id="linearGradient3678">
      <stop
         style="stop-color:#959794;stop-opacity:1"
         offset="0"
         id="stop3680" />
      <stop
         style="stop-color:#000000;stop-opacity:0;"
         offset="1"
         id="stop3682" />
    </linearGradient>
    <linearGradient
       inkscape:collect="always"
       xlink:href="#linearGradient3668"
       id="linearGradient3674"
       x1="96.013008"
       y1="48.400726"
       x2="92.981857"
       y2="46.033882"
       gradientUnits="userSpaceOnUse" />
    <linearGradient
       inkscape:collect="always"
       id="linearGradient3668">
      <stop
         style="stop-color:#0a0a00;stop-opacity:1"
         offset="0"
         id="stop3670" />
      <stop
         style="stop-color:#0b0a05;stop-opacity:1"
         offset="1"
         id="stop3672" />
    </linearGradient>
    <linearGradient
       id="linearGradient3694">
      <stop
         style="stop-color:#c5c5c5;stop-opacity:1;"
         offset="0"
         id="stop3696" />
      <stop
         style="stop-color:#ffffff;stop-opacity:1"
         offset="1"
         id="stop3698" />
    </linearGradient>
    <linearGradient
       inkscape:collect="always"
       xlink:href="#linearGradient3191"
       id="linearGradient3799"
       gradientUnits="userSpaceOnUse"
       gradientTransform="matrix(1,0,0,-1,-152.55859,1969.0775)"
       x1="203.07224"
       y1="964.83563"
       x2="201.76851"
       y2="964.08435" />
    <linearGradient
       inkscape:collect="always"
       id="linearGradient3191">
      <stop
         style="stop-color:#dadedd;stop-opacity:1"
         offset="0"
         id="stop3193" />
      <stop
         style="stop-color:#f7f7f5;stop-opacity:1"
         offset="1"
         id="stop3195" />
    </linearGradient>
    <linearGradient
       inkscape:collect="always"
       xlink:href="#linearGradient3191"
       id="linearGradient3801"
       gradientUnits="userSpaceOnUse"
       gradientTransform="translate(-152.55859,0)"
       x1="203.07224"
       y1="964.83563"
       x2="201.76851"
       y2="964.08435" />
    <linearGradient
       inkscape:collect="always"
       xlink:href="#linearGradient3177"
       id="linearGradient3803"
       gradientUnits="userSpaceOnUse"
       gradientTransform="translate(-152.55859,0.02102661)"
       x1="198.69772"
       y1="965.88971"
       x2="199.49873"
       y2="965.22681" />
    <linearGradient
       id="linearGradient3177">
      <stop
         style="stop-color:#b1b1b1;stop-opacity:1"
         offset="0"
         id="stop3179" />
      <stop
         style="stop-color:#f7f7f7;stop-opacity:1"
         offset="1"
         id="stop3181" />
    </linearGradient>
    <linearGradient
       inkscape:collect="always"
       xlink:href="#linearGradient3177"
       id="linearGradient3805"
       gradientUnits="userSpaceOnUse"
       gradientTransform="translate(-152.55859,0)"
       x1="198.60933"
       y1="963.57733"
       x2="199.43245"
       y2="962.75977" />
    <linearGradient
       inkscape:collect="always"
       xlink:href="#linearGradient3191"
       id="linearGradient3807-8"
       gradientUnits="userSpaceOnUse"
       gradientTransform="translate(-152.55859,0.03340149)"
       x1="203.07686"
       y1="969.20306"
       x2="201.11574"
       y2="968.47388" />
    <linearGradient
       inkscape:collect="always"
       xlink:href="#linearGradient3177"
       id="linearGradient3809"
       gradientUnits="userSpaceOnUse"
       gradientTransform="translate(-152.55859,0.05257416)"
       x1="198.52023"
       y1="970.07263"
       x2="199.35992"
       y2="969.38763" />
    <linearGradient
       inkscape:collect="always"
       xlink:href="#linearGradient3177"
       id="linearGradient3811"
       gradientUnits="userSpaceOnUse"
       gradientTransform="translate(-152.55859,0.03155518)"
       x1="198.60933"
       y1="967.92535"
       x2="199.85229"
       y2="967.08563" />
    <linearGradient
       inkscape:collect="always"
       xlink:href="#linearGradient3191"
       id="linearGradient3813"
       gradientUnits="userSpaceOnUse"
       gradientTransform="translate(-152.55859,0.01670074)"
       x1="202.41394"
       y1="966.86334"
       x2="201.09364"
       y2="965.93524" />
    <linearGradient
       inkscape:collect="always"
       xlink:href="#linearGradient3191"
       id="linearGradient3815"
       gradientUnits="userSpaceOnUse"
       gradientTransform="translate(-152.55859,9.072177)"
       x1="203.07224"
       y1="964.83563"
       x2="201.76851"
       y2="964.08435" />
    <linearGradient
       inkscape:collect="always"
       xlink:href="#linearGradient3177"
       id="linearGradient3817"
       gradientUnits="userSpaceOnUse"
       gradientTransform="translate(-152.55859,9.0895033)"
       x1="198.69772"
       y1="965.88971"
       x2="199.49873"
       y2="965.22681" />
    <linearGradient
       inkscape:collect="always"
       xlink:href="#linearGradient3177"
       id="linearGradient3819"
       gradientUnits="userSpaceOnUse"
       gradientTransform="translate(-152.55859,9.0684691)"
       x1="198.60933"
       y1="963.57733"
       x2="199.43245"
       y2="962.75977" />
    <linearGradient
       inkscape:collect="always"
       xlink:href="#linearGradient3191"
       id="linearGradient3821"
       gradientUnits="userSpaceOnUse"
       gradientTransform="translate(-152.55859,9.1055861)"
       x1="203.07686"
       y1="969.20306"
       x2="201.11574"
       y2="968.47388" />
    <linearGradient
       inkscape:collect="always"
       xlink:href="#linearGradient3177"
       id="linearGradient3823"
       gradientUnits="userSpaceOnUse"
       gradientTransform="translate(-152.55859,9.1210509)"
       x1="198.52023"
       y1="970.07263"
       x2="199.35992"
       y2="969.38763" />
    <linearGradient
       inkscape:collect="always"
       xlink:href="#linearGradient3177"
       id="linearGradient3825"
       gradientUnits="userSpaceOnUse"
       gradientTransform="translate(-152.55859,9.1000242)"
       x1="198.60933"
       y1="967.92535"
       x2="199.85229"
       y2="967.08563" />
    <linearGradient
       inkscape:collect="always"
       xlink:href="#linearGradient3191"
       id="linearGradient3827"
       gradientUnits="userSpaceOnUse"
       gradientTransform="translate(-152.55859,9.0888701)"
       x1="202.41394"
       y1="966.86334"
       x2="201.09364"
       y2="965.93524" />
    <linearGradient
       inkscape:collect="always"
       xlink:href="#linearGradient3191"
       id="linearGradient3829"
       gradientUnits="userSpaceOnUse"
       gradientTransform="translate(-152.55859,6.8041334)"
       x1="203.07224"
       y1="964.83563"
       x2="201.76851"
       y2="964.08435" />
    <linearGradient
       inkscape:collect="always"
       xlink:href="#linearGradient3191"
       id="linearGradient3831"
       gradientUnits="userSpaceOnUse"
       gradientTransform="translate(-152.55859,11.373622)"
       x1="203.07686"
       y1="969.20306"
       x2="201.11574"
       y2="968.47388" />
    <linearGradient
       inkscape:collect="always"
       xlink:href="#linearGradient3191"
       id="linearGradient3833"
       gradientUnits="userSpaceOnUse"
       gradientTransform="translate(-152.55859,18.14434)"
       x1="203.07224"
       y1="964.83563"
       x2="201.76851"
       y2="964.08435" />
    <linearGradient
       inkscape:collect="always"
       xlink:href="#linearGradient3177"
       id="linearGradient3835"
       gradientUnits="userSpaceOnUse"
       gradientTransform="translate(-152.55859,18.157959)"
       x1="198.69772"
       y1="965.88971"
       x2="199.49873"
       y2="965.22681" />
    <linearGradient
       inkscape:collect="always"
       xlink:href="#linearGradient3177"
       id="linearGradient3837"
       gradientUnits="userSpaceOnUse"
       gradientTransform="translate(-152.55859,18.136932)"
       x1="198.60933"
       y1="963.57733"
       x2="199.43245"
       y2="962.75977" />
    <linearGradient
       inkscape:collect="always"
       xlink:href="#linearGradient3191"
       id="linearGradient3839"
       gradientUnits="userSpaceOnUse"
       gradientTransform="translate(-152.55859,18.177742)"
       x1="203.07686"
       y1="969.20306"
       x2="201.11574"
       y2="968.47388" />
    <linearGradient
       inkscape:collect="always"
       xlink:href="#linearGradient3177"
       id="linearGradient3841"
       gradientUnits="userSpaceOnUse"
       gradientTransform="translate(-152.55859,18.189506)"
       x1="198.52023"
       y1="970.07263"
       x2="199.35992"
       y2="969.38763" />
    <linearGradient
       inkscape:collect="always"
       xlink:href="#linearGradient3177"
       id="linearGradient3843"
       gradientUnits="userSpaceOnUse"
       gradientTransform="translate(-152.55859,18.168487)"
       x1="198.60933"
       y1="967.92535"
       x2="199.85229"
       y2="967.08563" />
    <linearGradient
       inkscape:collect="always"
       xlink:href="#linearGradient3191"
       id="linearGradient3845"
       gradientUnits="userSpaceOnUse"
       gradientTransform="translate(-152.55859,18.161041)"
       x1="202.41394"
       y1="966.86334"
       x2="201.09364"
       y2="965.93524" />
    <linearGradient
       inkscape:collect="always"
       xlink:href="#linearGradient3191"
       id="linearGradient3847"
       gradientUnits="userSpaceOnUse"
       gradientTransform="translate(-152.55859,27.216513)"
       x1="203.07224"
       y1="964.83563"
       x2="201.76851"
       y2="964.08435" />
    <linearGradient
       inkscape:collect="always"
       xlink:href="#linearGradient3177"
       id="linearGradient3849"
       gradientUnits="userSpaceOnUse"
       gradientTransform="translate(-152.55859,27.226427)"
       x1="198.69772"
       y1="965.88971"
       x2="199.49873"
       y2="965.22681" />
    <linearGradient
       inkscape:collect="always"
       xlink:href="#linearGradient3177"
       id="linearGradient3851"
       gradientUnits="userSpaceOnUse"
       gradientTransform="translate(-152.55859,27.205404)"
       x1="198.60933"
       y1="963.57733"
       x2="199.43245"
       y2="962.75977" />
    <linearGradient
       inkscape:collect="always"
       xlink:href="#linearGradient3191"
       id="linearGradient3853"
       gradientUnits="userSpaceOnUse"
       gradientTransform="translate(-152.55859,27.249918)"
       x1="203.07686"
       y1="969.20306"
       x2="201.11574"
       y2="968.47388" />
    <linearGradient
       inkscape:collect="always"
       xlink:href="#linearGradient3177"
       id="linearGradient3855"
       gradientUnits="userSpaceOnUse"
       gradientTransform="translate(-152.55859,27.257978)"
       x1="198.52023"
       y1="970.07263"
       x2="199.35992"
       y2="969.38763" />
    <linearGradient
       inkscape:collect="always"
       xlink:href="#linearGradient3177"
       id="linearGradient3857"
       gradientUnits="userSpaceOnUse"
       gradientTransform="translate(-152.55859,27.236952)"
       x1="198.60933"
       y1="967.92535"
       x2="199.85229"
       y2="967.08563" />
    <linearGradient
       inkscape:collect="always"
       xlink:href="#linearGradient3191"
       id="linearGradient3859"
       gradientUnits="userSpaceOnUse"
       gradientTransform="translate(-152.55859,27.233217)"
       x1="202.41394"
       y1="966.86334"
       x2="201.09364"
       y2="965.93524" />
    <linearGradient
       inkscape:collect="always"
       xlink:href="#linearGradient3191"
       id="linearGradient3861"
       gradientUnits="userSpaceOnUse"
       gradientTransform="translate(-152.55859,24.948473)"
       x1="203.07224"
       y1="964.83563"
       x2="201.76851"
       y2="964.08435" />
    <linearGradient
       inkscape:collect="always"
       xlink:href="#linearGradient3191"
       id="linearGradient3863"
       gradientUnits="userSpaceOnUse"
       gradientTransform="translate(-152.55859,29.517959)"
       x1="203.07686"
       y1="969.20306"
       x2="201.11574"
       y2="968.47388" />
    <linearGradient
       inkscape:collect="always"
       xlink:href="#linearGradient3191"
       id="linearGradient3865"
       gradientUnits="userSpaceOnUse"
       gradientTransform="translate(-152.55859,36.287685)"
       x1="203.07224"
       y1="964.83563"
       x2="201.76851"
       y2="964.08435" />
    <linearGradient
       inkscape:collect="always"
       xlink:href="#linearGradient3177"
       id="linearGradient3867"
       gradientUnits="userSpaceOnUse"
       gradientTransform="translate(-152.55859,36.293899)"
       x1="198.69772"
       y1="965.88971"
       x2="199.49873"
       y2="965.22681" />
    <linearGradient
       inkscape:collect="always"
       xlink:href="#linearGradient3177"
       id="linearGradient3869"
       gradientUnits="userSpaceOnUse"
       gradientTransform="translate(-152.55859,36.27386)"
       x1="198.60933"
       y1="963.57733"
       x2="199.43245"
       y2="962.75977" />
    <linearGradient
       inkscape:collect="always"
       xlink:href="#linearGradient3177"
       id="linearGradient3871"
       gradientUnits="userSpaceOnUse"
       gradientTransform="translate(-152.55859,36.304416)"
       x1="198.60933"
       y1="967.92535"
       x2="199.85229"
       y2="967.08563" />
    <linearGradient
       inkscape:collect="always"
       xlink:href="#linearGradient3191"
       id="linearGradient3873"
       gradientUnits="userSpaceOnUse"
       gradientTransform="translate(-152.55859,36.304416)"
       x1="202.41394"
       y1="966.86334"
       x2="201.09364"
       y2="965.93524" />
    <linearGradient
       inkscape:collect="always"
       xlink:href="#linearGradient3656"
       id="linearGradient4393"
       gradientUnits="userSpaceOnUse"
       x1="48.304234"
       y1="1010.4219"
       x2="48.304234"
       y2="1009.7133"
       gradientTransform="matrix(0.4848901,0,0,0.4848901,0.7252752,-464.77941)" />
    <linearGradient
       inkscape:collect="always"
       xlink:href="#linearGradient3678"
       id="linearGradient4400"
       gradientUnits="userSpaceOnUse"
       x1="106.38625"
       y1="1006.1552"
       x2="105.78614"
       y2="1016.1454"
       gradientTransform="matrix(0.48404823,0.02856074,-0.02856074,0.48404823,0.7252752,-464.77941)" />
    <linearGradient
       inkscape:collect="always"
       xlink:href="#linearGradient3656"
       id="linearGradient4403"
       gradientUnits="userSpaceOnUse"
       x1="49.8125"
       y1="1005.7997"
       x2="49.8125"
       y2="1008.5561"
       gradientTransform="matrix(0.4848901,0,0,0.4848901,0.7252752,-464.77941)" />
    <linearGradient
       inkscape:collect="always"
       xlink:href="#linearGradient3721"
       id="linearGradient4408"
       gradientUnits="userSpaceOnUse"
       x1="49.875"
       y1="60.5625"
       x2="45.877602"
       y2="60.169193"
       gradientTransform="matrix(0.4848901,0,0,0.4848901,0.7252752,-1.0488569)" />
    <linearGradient
       inkscape:collect="always"
       xlink:href="#linearGradient3644"
       id="linearGradient4412"
       gradientUnits="userSpaceOnUse"
       x1="50.428692"
       y1="1012.5741"
       x2="46.403881"
       y2="1023.9896"
       gradientTransform="matrix(0.4848901,0,0,0.4848901,0.7252752,-464.77941)" />
    <linearGradient
       inkscape:collect="always"
       xlink:href="#linearGradient3137"
       id="linearGradient4416"
       gradientUnits="userSpaceOnUse"
       gradientTransform="matrix(0,0.26770353,-0.1899153,0,14.884066,-255.76727)"
       x1="1042.2887"
       y1="-53.590767"
       x2="962.45428"
       y2="-53.590767" />
    <linearGradient
       inkscape:collect="always"
       xlink:href="#linearGradient3124"
       id="linearGradient4422"
       gradientUnits="userSpaceOnUse"
       x1="51.071957"
       y1="53.211567"
       x2="51.071957"
       y2="6.0850806"
       gradientTransform="matrix(0.4848901,0,0,0.4848901,0.7252752,-1.0488569)" />
  </defs>
  <metadata
     id="metadata3906">
    <rdf:RDF>
      <cc:Work
         rdf:about="">
        <dc:format>image/svg+xml</dc:format>
        <dc:type
           rdf:resource="http://purl.org/dc/dcmitype/StillImage" />
        <dc:title />
      </cc:Work>
    </rdf:RDF>
  </metadata>
  <path
     sodipodi:nodetypes="cccccc"
     d="m 6.4999609,1.872199 c 5.8015241,0 21.0210851,0.00228 21.0210851,0.00228 l 13.97896,14.352169 3.6e-5,29.651158 c 0,0 -23.333387,0 -35.0000811,0 0,-14.668535 0,-29.33707 0,-44.005607 z"
     inkscape:connector-curvature="0"
     id="path4372"
     style="fill:none;stroke:#000000;stroke-opacity:0.54901961;display:inline" />
  <path
     style="fill:url(#linearGradient3022);fill-opacity:1;stroke:none;display:inline"
     id="path4160"
     inkscape:connector-curvature="0"
     d="m 6.4999609,1.872199 c 5.8015241,0 20.9536831,0.00228 20.9536831,0.00228 l 14.046362,14.330072 3.6e-5,29.673255 c 0,0 -23.333387,0 -35.0000811,0 0,-14.668535 0,-29.33707 0,-44.005607 z"
     sodipodi:nodetypes="cccccc" />
  <text
     xml:space="preserve"
     style="font-style:normal;font-variant:normal;font-weight:normal;font-stretch:normal;line-height:0%;font-family:'Lucida Grande';-inkscape-font-specification:'Lucida Grande';letter-spacing:0px;word-spacing:0px;fill:#575757;fill-opacity:1;stroke:none"
     x="8.9514914"
     y="42.293575"
     id="text3801"><tspan
       sodipodi:role="line"
       id="tspan3803"
       x="8.9514914"
       y="42.293575"
       style="font-size:8.45291996px;line-height:1.25">TAR.GZ</tspan></text>
  <path
     inkscape:connector-curvature="0"
     style="fill:url(#linearGradient3807);fill-opacity:1;stroke:none"
     id="path6011"
     d="m 29.291794,14.167696 c -0.04524,-3.442826 0.09264,-9.2333791 -1.842657,-12.2756438 0,0 12.641014,12.7094898 13.994337,14.2899058 0,0 -2.348272,-1.877591 -12.15168,-2.014262 z"
     sodipodi:nodetypes="cccc" />
  <path
     style="fill:url(#linearGradient4422);fill-opacity:1;stroke:none"
     d="m 21.242188,1.8604837 0,2.3335336 0,11.9404187 0,6.849073 c 0,1.023694 0.824949,1.848643 1.848643,1.848643 l 1.818338,0 c 1.023694,0 1.848643,-0.824949 1.848643,-1.848643 l 0,-6.849073 0,-11.9404187 0,-2.3335336 -5.515624,0 z"
     id="rect3112"
     inkscape:connector-curvature="0" />
  <path
     sodipodi:nodetypes="cccsscccccsssss"
     id="path3733"
     d="m 22.628919,24.206072 -0.481954,6.607403 -0.01659,0.189253 c -0.0059,0.0577 -0.01659,0.114288 -0.01659,0.173494 0,0.989563 0.851675,1.79773 1.894578,1.79773 1.042904,0 1.877959,-0.808167 1.877959,-1.79773 0,-0.0515 -4e-5,-0.09484 -5.3e-5,-0.126072 l -0.498573,-6.828222 -2.758772,-0.01552 z m 1.379386,6.165862 c 0.471547,0 0.847574,0.356831 0.847574,0.804288 0,0.447456 -0.376027,0.819997 -0.847574,0.819997 -0.471547,0 -0.864193,-0.372541 -0.864193,-0.819997 0,-0.447457 0.392646,-0.804288 0.864193,-0.804288 z"
     style="opacity:0.05;fill:#000000;fill-opacity:1;stroke:none"
     inkscape:connector-curvature="0" />
  <path
     inkscape:connector-curvature="0"
     style="opacity:0.1;fill:#000000;fill-opacity:1;stroke:none"
     d="m 22.628919,23.963627 -0.481954,6.607403 -0.01659,0.189253 c -0.0059,0.0577 -0.01659,0.114288 -0.01659,0.173493 0,0.989564 0.851675,1.797731 1.894578,1.797731 1.042904,0 1.877959,-0.808167 1.877959,-1.797731 0,-0.0515 -4e-5,-0.09484 -5.3e-5,-0.126071 l -0.498573,-6.828222 -2.758772,-0.01552 z m 1.379386,6.165862 c 0.471547,0 0.847574,0.356831 0.847574,0.804287 0,0.447457 -0.376027,0.819998 -0.847574,0.819998 -0.471547,0 -0.864193,-0.372541 -0.864193,-0.819998 0,-0.447456 0.392646,-0.804287 0.864193,-0.804287 z"
     id="path3731"
     sodipodi:nodetypes="cccsscccccsssss" />
  <path
     sodipodi:nodetypes="cccsscccccsssss"
     id="path3729"
     d="m 22.628919,23.72123 -0.481954,6.607404 -0.01659,0.189252 c -0.0059,0.0577 -0.01659,0.114289 -0.01659,0.173494 0,0.989564 0.851675,1.79773 1.894578,1.79773 1.042904,0 1.877959,-0.808166 1.877959,-1.79773 0,-0.05149 -4e-5,-0.09484 -5.3e-5,-0.126072 L 25.38769,23.737086 22.628918,23.72157 z m 1.379386,6.165863 c 0.471547,0 0.847574,0.35683 0.847574,0.804287 0,0.447456 -0.376027,0.819998 -0.847574,0.819998 -0.471547,0 -0.864193,-0.372542 -0.864193,-0.819998 0,-0.447457 0.392646,-0.804287 0.864193,-0.804287 z"
     style="opacity:0.05;fill:#000000;fill-opacity:1;stroke:none"
     inkscape:connector-curvature="0" />
  <path
     style="fill:url(#linearGradient4416);fill-opacity:1;stroke:none"
     d="m 21.727078,1.8604837 0,1.4546703 0,12.819282 0,6.758156 c 0,0.803644 0.635873,1.45467 1.439517,1.45467 l 1.66681,0 c 0.803644,0 1.439517,-0.651026 1.439517,-1.45467 l 0,-6.758156 0,-12.819282 0,-1.4546703 -1.439517,0 -1.66681,0 -1.439517,0 z"
     id="rect3087"
     inkscape:connector-curvature="0" />
  <path
     inkscape:connector-curvature="0"
     style="opacity:0.2;fill:#000000;fill-opacity:1;stroke:none"
     d="m 22.749893,23.892687 -0.439432,6.349006 -0.01513,0.181834 c -0.0054,0.05547 -0.01513,0.109827 -0.01513,0.166705 0,0.950869 0.776532,1.727421 1.727421,1.727421 0.950889,0 1.712268,-0.776552 1.712268,-1.727421 0,-0.04946 -3.6e-5,-0.09111 -4.8e-5,-0.121126 l -0.454585,-6.561193 -2.515367,-0.01503 z m 1.257683,5.924727 c 0.429943,0 0.772794,0.342866 0.772794,0.772818 0,0.429952 -0.342851,0.787946 -0.772794,0.787946 -0.429942,0 -0.787946,-0.357994 -0.787946,-0.787946 0,-0.429952 0.358004,-0.772818 0.787946,-0.772818 z"
     id="path3557"
     sodipodi:nodetypes="cccsscccccsssss" />
  <path
     inkscape:connector-curvature="0"
     style="fill:url(#linearGradient4412);fill-opacity:1;stroke:none"
     d="m 22.916574,23.892687 -0.469738,6.561145 0,0.1364 c 0,0.860292 0.700424,1.560716 1.56074,1.560716 0.860317,0 1.545588,-0.700424 1.545588,-1.560716 l 0,-0.09092 -0.454585,-6.606628 -2.182005,0 z m 1.091002,5.773199 c 0.51572,0 0.924322,0.408617 0.924322,0.924346 0,0.515729 -0.408602,0.939474 -0.924322,0.939474 -0.515719,0 -0.939474,-0.423745 -0.939474,-0.939474 0,-0.515729 0.423755,-0.924346 0.939474,-0.924346 z"
     id="path3551" />
  <path
     inkscape:connector-curvature="0"
     style="opacity:0.1;fill:#000000;fill-opacity:1;stroke:none"
     d="m 24.007577,22.838245 c -1.828009,0 -2.05593,0.269842 -1.141928,1.311386 0.0044,0.0053 0.01136,0.0078 0.0154,0.01309 0.0054,0.0073 -0.005,0.01891 0,0.02667 0.0158,0.192792 0.1901,0.347908 0.416649,0.347908 l 1.404263,0 c 0.220386,0 0.377036,-0.149249 0.401218,-0.334574 0.01254,-0.02085 0.03121,-0.03637 0.04627,-0.05353 0.914002,-1.041544 0.686076,-1.311337 -1.141928,-1.311337 z"
     id="path3757" />
  <path
     style="opacity:0.5;fill:url(#linearGradient4408);fill-opacity:1;stroke:none"
     d="m 24.500043,25.059444 c -0.04695,0.0028 -0.08178,0.02895 -0.07576,0.07576 l 0.666724,5.136805 c 0.0043,0.03828 0.0078,0.09353 0.01,0.119828 0.08373,0.549521 -0.262921,1.081359 -0.813075,1.228773 -0.590097,0.158115 -1.205637,-0.19785 -1.363753,-0.787947 -0.05025,-0.187554 -0.05025,-0.373099 0,-0.560654 l -0.151527,-0.04546 c -0.05748,0.214531 -0.05748,0.437039 0,0.651571 0.180859,0.674973 0.885767,1.074874 1.56074,0.894016 0.572168,-0.153313 0.938071,-0.669786 0.926994,-1.23497 -3.92e-4,-0.07507 0.0037,-0.149751 -0.0027,-0.219701 l -0.66673,-5.182263 c -0.006,-0.04676 -0.04396,-0.07853 -0.09092,-0.07576 z"
     id="path3702"
     inkscape:connector-curvature="0"
     sodipodi:nodetypes="scccssccsscccs" />
  <path
     inkscape:transform-center-y="0.098664007"
     inkscape:transform-center-x="0.15145334"
     transform="matrix(0.16030331,-0.05373488,0.04295314,0.20054129,6.7504226,21.304441)"
     d="m 96.781534,48.531534 c -2.381963,2.381964 -3.195419,2.163999 -4.067278,-1.089824 -0.871859,-3.253822 -0.276368,-3.849313 2.977454,-2.977454 3.253823,0.871859 3.471788,1.685315 1.089824,4.067278 z"
     inkscape:randomized="0"
     inkscape:rounded="0.8"
     inkscape:flatsided="true"
     sodipodi:arg2="1.8325957"
     sodipodi:arg1="0.78539816"
     sodipodi:r2="1.2155406"
     sodipodi:r1="2.4310813"
     sodipodi:cy="46.8125"
     sodipodi:cx="95.0625"
     sodipodi:sides="3"
     id="path3586"
     style="opacity:0.2;fill:#ffffff;stroke:none"
     sodipodi:type="star" />
  <path
     id="path3749"
     d="m 24.007579,22.725799 c -1.996742,0 -2.245702,0.30553 -1.247333,1.484976 0.0048,0.0058 0.0124,0.0087 0.01683,0.01503 0.0059,0.0082 -0.0054,0.02134 0,0.03006 0.01726,0.218346 0.207648,0.393973 0.455108,0.393973 l 1.533884,0 c 0.240728,0 0.411838,-0.168984 0.438252,-0.378844 0.0137,-0.02376 0.03409,-0.04122 0.05054,-0.06061 0.998369,-1.179446 0.749403,-1.484976 -1.247334,-1.484976 z"
     style="opacity:0.1;fill:#000000;fill-opacity:1;stroke:none"
     inkscape:connector-curvature="0" />
  <path
     inkscape:connector-curvature="0"
     style="fill:url(#linearGradient4403);fill-opacity:1;stroke:none"
     d="m 24.007576,22.483451 c -1.795,0 -2.018806,0.305529 -1.121308,1.484976 0.0044,0.0058 0.01115,0.0087 0.01513,0.01503 0.0053,0.0082 -0.0049,0.02134 0,0.03006 0.01552,0.218346 0.186668,0.393973 0.409126,0.393973 l 1.378906,0 c 0.216406,0 0.370228,-0.168984 0.393973,-0.378845 0.01232,-0.02376 0.03064,-0.04121 0.04543,-0.06061 0.897498,-1.179446 0.673687,-1.484976 -1.121308,-1.484976 z"
     id="path3568" />
  <path
     style="fill:url(#linearGradient4400);fill-opacity:1;stroke:none"
     d="m 23.528987,24.987621 c 0.04695,0.0028 0.08562,0.04294 0.07975,0.08976 l -0.667261,5.313557 c -0.0057,0.04678 -0.0428,0.08253 -0.08975,0.07976 -0.04695,-0.0028 -0.08563,-0.04294 -0.07976,-0.08976 l 0.667261,-5.313557 c 0.0057,-0.04678 0.0428,-0.08253 0.08976,-0.07976 z"
     id="rect3588"
     inkscape:connector-curvature="0"
     sodipodi:nodetypes="sssssss" />
  <path
     sodipodi:type="star"
     style="fill:url(#linearGradient3674);fill-opacity:1;stroke:none"
     id="path3584"
     sodipodi:sides="3"
     sodipodi:cx="95.0625"
     sodipodi:cy="46.8125"
     sodipodi:r1="2.4310813"
     sodipodi:r2="1.2155406"
     sodipodi:arg1="0.78539816"
     sodipodi:arg2="1.8325957"
     inkscape:flatsided="true"
     inkscape:rounded="0.8"
     inkscape:randomized="0"
     d="m 96.781534,48.531534 c -2.381963,2.381964 -3.195419,2.163999 -4.067278,-1.089824 -0.871859,-3.253822 -0.276368,-3.849313 2.977454,-2.977454 3.253823,0.871859 3.471788,1.685315 1.089824,4.067278 z"
     transform="matrix(0.12277559,-0.04062757,0.03289762,0.15162416,10.788625,22.304818)"
     inkscape:transform-center-x="0.11599707"
     inkscape:transform-center-y="0.074638578" />
  <g
     id="g3753"
     transform="matrix(0.4848901,0,0,0.4848901,0.7252752,-464.77941)">
    <rect
       ry="0.59140182"
       rx="0.53999162"
       y="1008.5491"
       x="46.375"
       height="2.7190001"
       width="3.25"
       id="rect3709"
       style="opacity:0.1;fill:#000000;fill-opacity:1;stroke:none" />
    <rect
       style="opacity:0.1;fill:#000000;fill-opacity:1;stroke:none"
       id="rect3711"
       width="2.7417669"
       height="2.2328641"
       x="46.629116"
       y="1008.7921"
       rx="0.45554805"
       ry="0.4856638" />
  </g>
  <rect
     ry="0.18127148"
     rx="0.18127148"
     y="24.498762"
     x="23.454494"
     height="0.83340484"
     width="1.0910027"
     id="rect3578"
     style="fill:url(#linearGradient4393);fill-opacity:1.0;stroke:none" />
  <rect
     style="fill:#bec3bf;fill-opacity:1;stroke:none"
     id="rect3582"
     width="2.4244504"
     height="0.24244505"
     x="22.795351"
     y="23.256231"
     rx="0.17987859"
     ry="0.12122253" />
  <g
     id="g3717"
     transform="matrix(0.4848901,0,0,0.4848901,0.7252752,-464.77941)">
    <rect
       style="opacity:0.1;fill:#000000;fill-opacity:1;stroke:none"
       id="rect3664"
       width="3.25"
       height="6"
       x="46.375"
       y="1003.9252"
       rx="0.94066709"
       ry="0.94066709" />
    <rect
       ry="0.64528149"
       rx="0.64528149"
       y="1004.175"
       x="46.618069"
       height="5.5002656"
       width="2.763864"
       id="rect3666"
       style="opacity:0.2;fill:#000000;fill-opacity:1;stroke:none" />
  </g>
  <rect
     style="fill:#ffffff;fill-opacity:1;stroke:none"
     id="rect3576"
     width="1.0910027"
     height="2.4244504"
     x="23.454494"
     y="22.256174"
     rx="0.17473091"
     ry="0.17473091" />
  <g
     id="g3759"
     transform="matrix(0.4848901,0,0,0.4848901,0.7252752,-464.70364)">
    <path
       sodipodi:nodetypes="cccsssssssscccccccc"
       inkscape:connector-curvature="0"
       id="path3616"
       d="m 48.81641,1005.4399 c 0,-0.2076 -0.18286,-0.3164 -0.33594,-0.3164 l -0.32031,0 0,0.062 c 0,0.1315 -0.0873,0.25 -0.21875,0.25 l -0.1875,0 c -0.1315,0 -0.21875,-0.1185 -0.21875,-0.25 l 0,-0.4687 c 0,-0.1315 0.0873,-0.25 0.21875,-0.25 l 0.1875,0 c 0.1315,0 0.21875,0.1185 0.21875,0.25 l 0,0.062 0.33594,0 c 0.15056,0 0.32031,-0.1382 0.32031,-0.3086 0,-0.1914 0.15261,-0.3164 0.32813,-0.3164 l 1.57812,0 0,1.5937 -1.60156,0 c -0.15943,0 -0.30469,-0.1616 -0.30469,-0.3086 z"
       style="fill:url(#linearGradient3799);fill-opacity:1;stroke:none" />
    <path
       sodipodi:nodetypes="cccsssssssscccccccc"
       inkscape:connector-curvature="0"
       id="rect3155"
       d="m 48.81641,963.63757 c 0,0.20757 -0.18286,0.31641 -0.33594,0.31641 l -0.32031,0 0,-0.0625 c 0,-0.1315 -0.0873,-0.25 -0.21875,-0.25 l -0.1875,0 c -0.1315,0 -0.21875,0.1185 -0.21875,0.25 l 0,0.46875 c 0,0.1315 0.0873,0.25 0.21875,0.25 l 0.1875,0 c 0.1315,0 0.21875,-0.1185 0.21875,-0.25 l 0,-0.0625 0.33594,0 c 0.15056,0 0.32031,0.13816 0.32031,0.30859 0,0.1914 0.15261,0.31641 0.32813,0.31641 l 1.57812,0 0,-1.59375 -1.60156,0 c -0.15943,0 -0.30469,0.16168 -0.30469,0.30859 z"
       style="fill:url(#linearGradient3801);fill-opacity:1;stroke:none" />
    <path
       style="fill:url(#linearGradient3803);fill-opacity:1;stroke:none"
       d="m 47.1836,964.78164 c 0,0.20757 0.18286,0.31641 0.33594,0.31641 l 0.32031,0 0,-0.0625 c 0,-0.1315 0.0873,-0.25 0.21875,-0.25 l 0.1875,0 c 0.1315,0 0.21875,0.1185 0.21875,0.25 l 0,0.46875 c 0,0.1315 -0.0873,0.25 -0.21875,0.25 l -0.1875,0 c -0.1315,0 -0.21875,-0.1185 -0.21875,-0.25 l 0,-0.0625 -0.33594,0 c -0.15056,0 -0.32031,0.13816 -0.32031,0.30859 0,0.19141 -0.15261,0.31641 -0.32813,0.31641 l -1.57812,0 0,-1.59375 1.60156,0 c 0.15943,0 0.30469,0.16168 0.30469,0.30859 z"
       id="path3165"
       inkscape:connector-curvature="0"
       sodipodi:nodetypes="cccsssssssscccccccc" />
    <path
       sodipodi:nodetypes="cccsssssssscccccccc"
       inkscape:connector-curvature="0"
       id="path3167"
       d="m 47.1836,962.51452 c 0,0.20757 0.18286,0.31641 0.33594,0.31641 l 0.32031,0 0,-0.0625 c 0,-0.1315 0.0873,-0.25 0.21875,-0.25 l 0.1875,0 c 0.1315,0 0.21875,0.1185 0.21875,0.25 l 0,0.46875 c 0,0.1315 -0.0873,0.25 -0.21875,0.25 l -0.1875,0 c -0.1315,0 -0.21875,-0.1185 -0.21875,-0.25 l 0,-0.0625 -0.33594,0 c -0.15056,0 -0.32031,0.13816 -0.32031,0.30859 0,0.19141 -0.15261,0.31641 -0.32813,0.31641 l -1.57812,0 0,-1.59375 1.60156,0 c 0.15943,0 0.30469,0.16168 0.30469,0.30859 z"
       style="fill:url(#linearGradient3805);fill-opacity:1;stroke:none" />
    <path
       style="fill:url(#linearGradient3807-8);fill-opacity:1;stroke:none"
       d="m 48.81641,968.17365 c 0,0.20757 -0.18286,0.31641 -0.33594,0.31641 l -0.32031,0 0,-0.0625 c 0,-0.1315 -0.0873,-0.25 -0.21875,-0.25 l -0.1875,0 c -0.1315,0 -0.21875,0.1185 -0.21875,0.25 l 0,0.46875 c 0,0.1315 0.0873,0.25 0.21875,0.25 l 0.1875,0 c 0.1315,0 0.21875,-0.1185 0.21875,-0.25 l 0,-0.0625 0.33594,0 c 0.15056,0 0.32031,0.13816 0.32031,0.30859 0,0.1914 0.15261,0.31641 0.32813,0.31641 l 1.57812,0 0,-1.59375 -1.60156,0 c -0.15943,0 -0.30469,0.16168 -0.30469,0.30859 z"
       id="path3169"
       inkscape:connector-curvature="0"
       sodipodi:nodetypes="cccsssssssscccccccc" />
    <path
       sodipodi:nodetypes="cccsssssssscccccccc"
       inkscape:connector-curvature="0"
       id="path3171"
       d="m 47.1836,969.31585 c 0,0.20758 0.18286,0.31642 0.33594,0.31642 l 0.32031,0 0,-0.0625 c 0,-0.1315 0.0873,-0.25 0.21875,-0.25 l 0.1875,0 c 0.1315,0 0.21875,0.1185 0.21875,0.25 l 0,0.46875 c 0,0.13149 -0.0873,0.25 -0.21875,0.25 l -0.1875,0 c -0.1315,0 -0.21875,-0.11851 -0.21875,-0.25 l 0,-0.0625 -0.33594,0 c -0.15056,0 -0.32031,0.13815 -0.32031,0.30858 0,0.19142 -0.15261,0.31642 -0.32813,0.31642 l -1.57812,0 0,-1.59375 1.60156,0 c 0.15943,0 0.30469,0.16168 0.30469,0.30858 z"
       style="fill:url(#linearGradient3809);fill-opacity:1;stroke:none" />
    <path
       style="fill:url(#linearGradient3811);fill-opacity:1;stroke:none"
       d="m 47.1836,967.04876 c 0,0.20757 0.18286,0.31641 0.33594,0.31641 l 0.32031,0 0,-0.0625 c 0,-0.1315 0.0873,-0.25 0.21875,-0.25 l 0.1875,0 c 0.1315,0 0.21875,0.1185 0.21875,0.25 l 0,0.46875 c 0,0.13149 -0.0873,0.25 -0.21875,0.25 l -0.1875,0 c -0.1315,0 -0.21875,-0.11851 -0.21875,-0.25 l 0,-0.0625 -0.33594,0 c -0.15056,0 -0.32031,0.13815 -0.32031,0.30859 0,0.19141 -0.15261,0.31641 -0.32813,0.31641 l -1.57812,0 0,-1.59375 1.60156,0 c 0.15943,0 0.30469,0.16168 0.30469,0.30859 z"
       id="path3173"
       inkscape:connector-curvature="0"
       sodipodi:nodetypes="cccsssssssscccccccc" />
    <path
       style="fill:url(#linearGradient3813);fill-opacity:1;stroke:none"
       d="m 48.81641,965.90561 c 0,0.20757 -0.18286,0.31641 -0.33594,0.31641 l -0.32031,0 0,-0.0625 c 0,-0.1315 -0.0873,-0.25 -0.21875,-0.25 l -0.1875,0 c -0.1315,0 -0.21875,0.1185 -0.21875,0.25 l 0,0.46875 c 0,0.1315 0.0873,0.25 0.21875,0.25 l 0.1875,0 c 0.1315,0 0.21875,-0.1185 0.21875,-0.25 l 0,-0.0625 0.33594,0 c 0.15056,0 0.32031,0.13816 0.32031,0.30859 0,0.1914 0.15261,0.31641 0.32813,0.31641 l 1.57812,0 0,-1.59375 -1.60156,0 c -0.15943,0 -0.30469,0.16168 -0.30469,0.30859 z"
       id="path3175"
       inkscape:connector-curvature="0"
       sodipodi:nodetypes="cccsssssssscccccccc" />
    <path
       style="fill:url(#linearGradient3815);fill-opacity:1;stroke:none"
       d="m 48.81641,972.70974 c 0,0.20757 -0.18286,0.31641 -0.33594,0.31641 l -0.32031,0 0,-0.0625 c 0,-0.1315 -0.0873,-0.25 -0.21875,-0.25 l -0.1875,0 c -0.1315,0 -0.21875,0.1185 -0.21875,0.25 l 0,0.46875 c 0,0.1315 0.0873,0.25 0.21875,0.25 l 0.1875,0 c 0.1315,0 0.21875,-0.1185 0.21875,-0.25 l 0,-0.0625 0.33594,0 c 0.15056,0 0.32031,0.13816 0.32031,0.30859 0,0.1914 0.15261,0.31641 0.32813,0.31641 l 1.57812,0 0,-1.59375 -1.60156,0 c -0.15943,0 -0.30469,0.16168 -0.30469,0.30859 z"
       id="path3203"
       inkscape:connector-curvature="0"
       sodipodi:nodetypes="cccsssssssscccccccc" />
    <path
       sodipodi:nodetypes="cccsssssssscccccccc"
       inkscape:connector-curvature="0"
       id="path3205"
       d="m 47.1836,973.85011 c 0,0.20757 0.18286,0.31641 0.33594,0.31641 l 0.32031,0 0,-0.0625 c 0,-0.1315 0.0873,-0.25 0.21875,-0.25 l 0.1875,0 c 0.1315,0 0.21875,0.1185 0.21875,0.25 l 0,0.46875 c 0,0.1315 -0.0873,0.25 -0.21875,0.25 l -0.1875,0 c -0.1315,0 -0.21875,-0.1185 -0.21875,-0.25 l 0,-0.0625 -0.33594,0 c -0.15056,0 -0.32031,0.13816 -0.32031,0.30859 0,0.19141 -0.15261,0.31641 -0.32813,0.31641 l -1.57812,0 0,-1.59375 1.60156,0 c 0.15943,0 0.30469,0.16168 0.30469,0.30859 z"
       style="fill:url(#linearGradient3817);fill-opacity:1;stroke:none" />
    <path
       style="fill:url(#linearGradient3819);fill-opacity:1;stroke:none"
       d="m 47.1836,971.58298 c 0,0.20757 0.18286,0.31641 0.33594,0.31641 l 0.32031,0 0,-0.0625 c 0,-0.1315 0.0873,-0.25 0.21875,-0.25 l 0.1875,0 c 0.1315,0 0.21875,0.1185 0.21875,0.25 l 0,0.46875 c 0,0.1315 -0.0873,0.25 -0.21875,0.25 l -0.1875,0 c -0.1315,0 -0.21875,-0.1185 -0.21875,-0.25 l 0,-0.0625 -0.33594,0 c -0.15056,0 -0.32031,0.13816 -0.32031,0.30859 0,0.19141 -0.15261,0.31641 -0.32813,0.31641 l -1.57812,0 0,-1.59375 1.60156,0 c 0.15943,0 0.30469,0.16168 0.30469,0.30859 z"
       id="path3207"
       inkscape:connector-curvature="0"
       sodipodi:nodetypes="cccsssssssscccccccc" />
    <path
       sodipodi:nodetypes="cccsssssssscccccccc"
       inkscape:connector-curvature="0"
       id="path3209"
       d="m 48.81641,977.24583 c 0,0.20757 -0.18286,0.31641 -0.33594,0.31641 l -0.32031,0 0,-0.0625 c 0,-0.1315 -0.0873,-0.25 -0.21875,-0.25 l -0.1875,0 c -0.1315,0 -0.21875,0.1185 -0.21875,0.25 l 0,0.46875 c 0,0.1315 0.0873,0.25 0.21875,0.25 l 0.1875,0 c 0.1315,0 0.21875,-0.1185 0.21875,-0.25 l 0,-0.0625 0.33594,0 c 0.15056,0 0.32031,0.13816 0.32031,0.30859 0,0.1914 0.15261,0.31641 0.32813,0.31641 l 1.57812,0 0,-1.59375 -1.60156,0 c -0.15943,0 -0.30469,0.16168 -0.30469,0.30859 z"
       style="fill:url(#linearGradient3821);fill-opacity:1;stroke:none" />
    <path
       style="fill:url(#linearGradient3823);fill-opacity:1;stroke:none"
       d="m 47.1836,978.38433 c 0,0.20758 0.18286,0.31642 0.33594,0.31642 l 0.32031,0 0,-0.0625 c 0,-0.1315 0.0873,-0.25 0.21875,-0.25 l 0.1875,0 c 0.1315,0 0.21875,0.1185 0.21875,0.25 l 0,0.46875 c 0,0.13149 -0.0873,0.25 -0.21875,0.25 l -0.1875,0 c -0.1315,0 -0.21875,-0.11851 -0.21875,-0.25 l 0,-0.0625 -0.33594,0 c -0.15056,0 -0.32031,0.13815 -0.32031,0.30858 0,0.19142 -0.15261,0.31642 -0.32813,0.31642 l -1.57812,0 0,-1.59375 1.60156,0 c 0.15943,0 0.30469,0.16168 0.30469,0.30858 z"
       id="path3211"
       inkscape:connector-curvature="0"
       sodipodi:nodetypes="cccsssssssscccccccc" />
    <path
       sodipodi:nodetypes="cccsssssssscccccccc"
       inkscape:connector-curvature="0"
       id="path3213"
       d="m 47.1836,976.11722 c 0,0.20757 0.18286,0.31641 0.33594,0.31641 l 0.32031,0 0,-0.0625 c 0,-0.1315 0.0873,-0.25 0.21875,-0.25 l 0.1875,0 c 0.1315,0 0.21875,0.1185 0.21875,0.25 l 0,0.46875 c 0,0.13149 -0.0873,0.25 -0.21875,0.25 l -0.1875,0 c -0.1315,0 -0.21875,-0.11851 -0.21875,-0.25 l 0,-0.0625 -0.33594,0 c -0.15056,0 -0.32031,0.13815 -0.32031,0.30859 0,0.19141 -0.15261,0.31641 -0.32813,0.31641 l -1.57812,0 0,-1.59375 1.60156,0 c 0.15943,0 0.30469,0.16168 0.30469,0.30859 z"
       style="fill:url(#linearGradient3825);fill-opacity:1;stroke:none" />
    <path
       sodipodi:nodetypes="cccsssssssscccccccc"
       inkscape:connector-curvature="0"
       id="path3215"
       d="m 48.81641,974.97777 c 0,0.20757 -0.18286,0.31641 -0.33594,0.31641 l -0.32031,0 0,-0.0625 c 0,-0.1315 -0.0873,-0.25 -0.21875,-0.25 l -0.1875,0 c -0.1315,0 -0.21875,0.1185 -0.21875,0.25 l 0,0.46875 c 0,0.1315 0.0873,0.25 0.21875,0.25 l 0.1875,0 c 0.1315,0 0.21875,-0.1185 0.21875,-0.25 l 0,-0.0625 0.33594,0 c 0.15056,0 0.32031,0.13816 0.32031,0.30859 0,0.1914 0.15261,0.31641 0.32813,0.31641 l 1.57812,0 0,-1.59375 -1.60156,0 c -0.15943,0 -0.30469,0.16168 -0.30469,0.30859 z"
       style="fill:url(#linearGradient3827);fill-opacity:1;stroke:none" />
    <path
       sodipodi:nodetypes="cccsssssssscccccccc"
       inkscape:connector-curvature="0"
       id="path3231"
       d="m 48.81641,970.4417 c 0,0.20757 -0.18286,0.31641 -0.33594,0.31641 l -0.32031,0 0,-0.0625 c 0,-0.1315 -0.0873,-0.25 -0.21875,-0.25 l -0.1875,0 c -0.1315,0 -0.21875,0.1185 -0.21875,0.25 l 0,0.46875 c 0,0.1315 0.0873,0.25 0.21875,0.25 l 0.1875,0 c 0.1315,0 0.21875,-0.1185 0.21875,-0.25 l 0,-0.0625 0.33594,0 c 0.15056,0 0.32031,0.13816 0.32031,0.30859 0,0.1914 0.15261,0.31641 0.32813,0.31641 l 1.57812,0 0,-1.59375 -1.60156,0 c -0.15943,0 -0.30469,0.16168 -0.30469,0.30859 z"
       style="fill:url(#linearGradient3829);fill-opacity:1;stroke:none" />
    <path
       style="fill:url(#linearGradient3831);fill-opacity:1;stroke:none"
       d="m 48.81641,979.51387 c 0,0.20757 -0.18286,0.31641 -0.33594,0.31641 l -0.32031,0 0,-0.0625 c 0,-0.1315 -0.0873,-0.25 -0.21875,-0.25 l -0.1875,0 c -0.1315,0 -0.21875,0.1185 -0.21875,0.25 l 0,0.46875 c 0,0.1315 0.0873,0.25 0.21875,0.25 l 0.1875,0 c 0.1315,0 0.21875,-0.1185 0.21875,-0.25 l 0,-0.0625 0.33594,0 c 0.15056,0 0.32031,0.13816 0.32031,0.30859 0,0.1914 0.15261,0.31641 0.32813,0.31641 l 1.57812,0 0,-1.59375 -1.60156,0 c -0.15943,0 -0.30469,0.16168 -0.30469,0.30859 z"
       id="path3235"
       inkscape:connector-curvature="0"
       sodipodi:nodetypes="cccsssssssscccccccc" />
    <path
       style="fill:url(#linearGradient3833);fill-opacity:1;stroke:none"
       d="m 48.81641,981.78191 c 0,0.20757 -0.18286,0.31641 -0.33594,0.31641 l -0.32031,0 0,-0.0625 c 0,-0.1315 -0.0873,-0.25 -0.21875,-0.25 l -0.1875,0 c -0.1315,0 -0.21875,0.1185 -0.21875,0.25 l 0,0.46875 c 0,0.1315 0.0873,0.25 0.21875,0.25 l 0.1875,0 c 0.1315,0 0.21875,-0.1185 0.21875,-0.25 l 0,-0.0625 0.33594,0 c 0.15056,0 0.32031,0.13816 0.32031,0.30859 0,0.1914 0.15261,0.31641 0.32813,0.31641 l 1.57812,0 0,-1.59375 -1.60156,0 c -0.15943,0 -0.30469,0.16168 -0.30469,0.30859 z"
       id="path3239"
       inkscape:connector-curvature="0"
       sodipodi:nodetypes="cccsssssssscccccccc" />
    <path
       sodipodi:nodetypes="cccsssssssscccccccc"
       inkscape:connector-curvature="0"
       id="path3241"
       d="m 47.1836,982.91857 c 0,0.20757 0.18286,0.31641 0.33594,0.31641 l 0.32031,0 0,-0.0625 c 0,-0.1315 0.0873,-0.25 0.21875,-0.25 l 0.1875,0 c 0.1315,0 0.21875,0.1185 0.21875,0.25 l 0,0.46875 c 0,0.1315 -0.0873,0.25 -0.21875,0.25 l -0.1875,0 c -0.1315,0 -0.21875,-0.1185 -0.21875,-0.25 l 0,-0.0625 -0.33594,0 c -0.15056,0 -0.32031,0.13816 -0.32031,0.30859 0,0.19141 -0.15261,0.31641 -0.32813,0.31641 l -1.57812,0 0,-1.59375 1.60156,0 c 0.15943,0 0.30469,0.16168 0.30469,0.30859 z"
       style="fill:url(#linearGradient3835);fill-opacity:1;stroke:none" />
    <path
       style="fill:url(#linearGradient3837);fill-opacity:1;stroke:none"
       d="m 47.1836,980.65145 c 0,0.20757 0.18286,0.31641 0.33594,0.31641 l 0.32031,0 0,-0.0625 c 0,-0.1315 0.0873,-0.25 0.21875,-0.25 l 0.1875,0 c 0.1315,0 0.21875,0.1185 0.21875,0.25 l 0,0.46875 c 0,0.1315 -0.0873,0.25 -0.21875,0.25 l -0.1875,0 c -0.1315,0 -0.21875,-0.1185 -0.21875,-0.25 l 0,-0.0625 -0.33594,0 c -0.15056,0 -0.32031,0.13816 -0.32031,0.30859 0,0.19141 -0.15261,0.31641 -0.32813,0.31641 l -1.57812,0 0,-1.59375 1.60156,0 c 0.15943,0 0.30469,0.16168 0.30469,0.30859 z"
       id="path3243"
       inkscape:connector-curvature="0"
       sodipodi:nodetypes="cccsssssssscccccccc" />
    <path
       sodipodi:nodetypes="cccsssssssscccccccc"
       inkscape:connector-curvature="0"
       id="path3245"
       d="m 48.81641,986.31799 c 0,0.20757 -0.18286,0.31641 -0.33594,0.31641 l -0.32031,0 0,-0.0625 c 0,-0.1315 -0.0873,-0.25 -0.21875,-0.25 l -0.1875,0 c -0.1315,0 -0.21875,0.1185 -0.21875,0.25 l 0,0.46875 c 0,0.1315 0.0873,0.25 0.21875,0.25 l 0.1875,0 c 0.1315,0 0.21875,-0.1185 0.21875,-0.25 l 0,-0.0625 0.33594,0 c 0.15056,0 0.32031,0.13816 0.32031,0.30859 0,0.1914 0.15261,0.31641 0.32813,0.31641 l 1.57812,0 0,-1.59375 -1.60156,0 c -0.15943,0 -0.30469,0.16168 -0.30469,0.30859 z"
       style="fill:url(#linearGradient3839);fill-opacity:1;stroke:none" />
    <path
       style="fill:url(#linearGradient3841);fill-opacity:1;stroke:none"
       d="m 47.1836,987.45279 c 0,0.20758 0.18286,0.31642 0.33594,0.31642 l 0.32031,0 0,-0.0625 c 0,-0.1315 0.0873,-0.25 0.21875,-0.25 l 0.1875,0 c 0.1315,0 0.21875,0.1185 0.21875,0.25 l 0,0.46875 c 0,0.13149 -0.0873,0.25 -0.21875,0.25 l -0.1875,0 c -0.1315,0 -0.21875,-0.11851 -0.21875,-0.25 l 0,-0.0625 -0.33594,0 c -0.15056,0 -0.32031,0.13815 -0.32031,0.30858 0,0.19142 -0.15261,0.31642 -0.32813,0.31642 l -1.57812,0 0,-1.59375 1.60156,0 c 0.15943,0 0.30469,0.16168 0.30469,0.30858 z"
       id="path3247"
       inkscape:connector-curvature="0"
       sodipodi:nodetypes="cccsssssssscccccccc" />
    <path
       sodipodi:nodetypes="cccsssssssscccccccc"
       inkscape:connector-curvature="0"
       id="path3249"
       d="m 47.1836,985.18569 c 0,0.20757 0.18286,0.31641 0.33594,0.31641 l 0.32031,0 0,-0.0625 c 0,-0.1315 0.0873,-0.25 0.21875,-0.25 l 0.1875,0 c 0.1315,0 0.21875,0.1185 0.21875,0.25 l 0,0.46875 c 0,0.13149 -0.0873,0.25 -0.21875,0.25 l -0.1875,0 c -0.1315,0 -0.21875,-0.11851 -0.21875,-0.25 l 0,-0.0625 -0.33594,0 c -0.15056,0 -0.32031,0.13815 -0.32031,0.30859 0,0.19141 -0.15261,0.31641 -0.32813,0.31641 l -1.57812,0 0,-1.59375 1.60156,0 c 0.15943,0 0.30469,0.16168 0.30469,0.30859 z"
       style="fill:url(#linearGradient3843);fill-opacity:1;stroke:none" />
    <path
       sodipodi:nodetypes="cccsssssssscccccccc"
       inkscape:connector-curvature="0"
       id="path3251"
       d="m 48.81641,984.04995 c 0,0.20757 -0.18286,0.31641 -0.33594,0.31641 l -0.32031,0 0,-0.0625 c 0,-0.1315 -0.0873,-0.25 -0.21875,-0.25 l -0.1875,0 c -0.1315,0 -0.21875,0.1185 -0.21875,0.25 l 0,0.46875 c 0,0.1315 0.0873,0.25 0.21875,0.25 l 0.1875,0 c 0.1315,0 0.21875,-0.1185 0.21875,-0.25 l 0,-0.0625 0.33594,0 c 0.15056,0 0.32031,0.13816 0.32031,0.30859 0,0.1914 0.15261,0.31641 0.32813,0.31641 l 1.57812,0 0,-1.59375 -1.60156,0 c -0.15943,0 -0.30469,0.16168 -0.30469,0.30859 z"
       style="fill:url(#linearGradient3845);fill-opacity:1;stroke:none" />
    <path
       sodipodi:nodetypes="cccsssssssscccccccc"
       inkscape:connector-curvature="0"
       id="path3253"
       d="m 48.81641,990.85408 c 0,0.20757 -0.18286,0.31641 -0.33594,0.31641 l -0.32031,0 0,-0.0625 c 0,-0.1315 -0.0873,-0.25 -0.21875,-0.25 l -0.1875,0 c -0.1315,0 -0.21875,0.1185 -0.21875,0.25 l 0,0.46875 c 0,0.1315 0.0873,0.25 0.21875,0.25 l 0.1875,0 c 0.1315,0 0.21875,-0.1185 0.21875,-0.25 l 0,-0.0625 0.33594,0 c 0.15056,0 0.32031,0.13816 0.32031,0.30859 0,0.1914 0.15261,0.31641 0.32813,0.31641 l 1.57812,0 0,-1.59375 -1.60156,0 c -0.15943,0 -0.30469,0.16168 -0.30469,0.30859 z"
       style="fill:url(#linearGradient3847);fill-opacity:1;stroke:none" />
    <path
       style="fill:url(#linearGradient3849);fill-opacity:1;stroke:none"
       d="m 47.1836,991.98703 c 0,0.20757 0.18286,0.31641 0.33594,0.31641 l 0.32031,0 0,-0.0625 c 0,-0.1315 0.0873,-0.25 0.21875,-0.25 l 0.1875,0 c 0.1315,0 0.21875,0.1185 0.21875,0.25 l 0,0.46875 c 0,0.1315 -0.0873,0.25 -0.21875,0.25 l -0.1875,0 c -0.1315,0 -0.21875,-0.1185 -0.21875,-0.25 l 0,-0.0625 -0.33594,0 c -0.15056,0 -0.32031,0.13816 -0.32031,0.30859 0,0.19141 -0.15261,0.31641 -0.32813,0.31641 l -1.57812,0 0,-1.59375 1.60156,0 c 0.15943,0 0.30469,0.16168 0.30469,0.30859 z"
       id="path3255"
       inkscape:connector-curvature="0"
       sodipodi:nodetypes="cccsssssssscccccccc" />
    <path
       sodipodi:nodetypes="cccsssssssscccccccc"
       inkscape:connector-curvature="0"
       id="path3257"
       d="m 47.1836,989.71992 c 0,0.20757 0.18286,0.31641 0.33594,0.31641 l 0.32031,0 0,-0.0625 c 0,-0.1315 0.0873,-0.25 0.21875,-0.25 l 0.1875,0 c 0.1315,0 0.21875,0.1185 0.21875,0.25 l 0,0.46875 c 0,0.1315 -0.0873,0.25 -0.21875,0.25 l -0.1875,0 c -0.1315,0 -0.21875,-0.1185 -0.21875,-0.25 l 0,-0.0625 -0.33594,0 c -0.15056,0 -0.32031,0.13816 -0.32031,0.30859 0,0.19141 -0.15261,0.31641 -0.32813,0.31641 l -1.57812,0 0,-1.59375 1.60156,0 c 0.15943,0 0.30469,0.16168 0.30469,0.30859 z"
       style="fill:url(#linearGradient3851);fill-opacity:1;stroke:none" />
    <path
       style="fill:url(#linearGradient3853);fill-opacity:1;stroke:none"
       d="m 48.81641,995.39016 c 0,0.20757 -0.18286,0.31641 -0.33594,0.31641 l -0.32031,0 0,-0.0625 c 0,-0.1315 -0.0873,-0.25 -0.21875,-0.25 l -0.1875,0 c -0.1315,0 -0.21875,0.1185 -0.21875,0.25 l 0,0.46875 c 0,0.1315 0.0873,0.25 0.21875,0.25 l 0.1875,0 c 0.1315,0 0.21875,-0.1185 0.21875,-0.25 l 0,-0.0625 0.33594,0 c 0.15056,0 0.32031,0.13816 0.32031,0.30859 0,0.1914 0.15261,0.31641 0.32813,0.31641 l 1.57812,0 0,-1.59375 -1.60156,0 c -0.15943,0 -0.30469,0.16168 -0.30469,0.30859 z"
       id="path3259"
       inkscape:connector-curvature="0"
       sodipodi:nodetypes="cccsssssssscccccccc" />
    <path
       sodipodi:nodetypes="cccsssssssscccccccc"
       inkscape:connector-curvature="0"
       id="path3261"
       d="m 47.1836,996.52125 c 0,0.20758 0.18286,0.31642 0.33594,0.31642 l 0.32031,0 0,-0.0625 c 0,-0.1315 0.0873,-0.25 0.21875,-0.25 l 0.1875,0 c 0.1315,0 0.21875,0.1185 0.21875,0.25 l 0,0.46875 c 0,0.13149 -0.0873,0.25 -0.21875,0.25 l -0.1875,0 c -0.1315,0 -0.21875,-0.11851 -0.21875,-0.25 l 0,-0.0625 -0.33594,0 c -0.15056,0 -0.32031,0.13815 -0.32031,0.30858 0,0.19142 -0.15261,0.31642 -0.32813,0.31642 l -1.57812,0 0,-1.59375 1.60156,0 c 0.15943,0 0.30469,0.16168 0.30469,0.30858 z"
       style="fill:url(#linearGradient3855);fill-opacity:1;stroke:none" />
    <path
       style="fill:url(#linearGradient3857);fill-opacity:1;stroke:none"
       d="m 47.1836,994.25415 c 0,0.20757 0.18286,0.31641 0.33594,0.31641 l 0.32031,0 0,-0.0625 c 0,-0.1315 0.0873,-0.25 0.21875,-0.25 l 0.1875,0 c 0.1315,0 0.21875,0.1185 0.21875,0.25 l 0,0.46875 c 0,0.13149 -0.0873,0.25 -0.21875,0.25 l -0.1875,0 c -0.1315,0 -0.21875,-0.11851 -0.21875,-0.25 l 0,-0.0625 -0.33594,0 c -0.15056,0 -0.32031,0.13815 -0.32031,0.30859 0,0.19141 -0.15261,0.31641 -0.32813,0.31641 l -1.57812,0 0,-1.59375 1.60156,0 c 0.15943,0 0.30469,0.16168 0.30469,0.30859 z"
       id="path3263"
       inkscape:connector-curvature="0"
       sodipodi:nodetypes="cccsssssssscccccccc" />
    <path
       style="fill:url(#linearGradient3859);fill-opacity:1;stroke:none"
       d="m 48.81641,993.12212 c 0,0.20757 -0.18286,0.31641 -0.33594,0.31641 l -0.32031,0 0,-0.0625 c 0,-0.1315 -0.0873,-0.25 -0.21875,-0.25 l -0.1875,0 c -0.1315,0 -0.21875,0.1185 -0.21875,0.25 l 0,0.46875 c 0,0.1315 0.0873,0.25 0.21875,0.25 l 0.1875,0 c 0.1315,0 0.21875,-0.1185 0.21875,-0.25 l 0,-0.0625 0.33594,0 c 0.15056,0 0.32031,0.13816 0.32031,0.30859 0,0.1914 0.15261,0.31641 0.32813,0.31641 l 1.57812,0 0,-1.59375 -1.60156,0 c -0.15943,0 -0.30469,0.16168 -0.30469,0.30859 z"
       id="path3265"
       inkscape:connector-curvature="0"
       sodipodi:nodetypes="cccsssssssscccccccc" />
    <path
       style="fill:url(#linearGradient3861);fill-opacity:1;stroke:none"
       d="m 48.81641,988.58604 c 0,0.20757 -0.18286,0.31641 -0.33594,0.31641 l -0.32031,0 0,-0.0625 c 0,-0.1315 -0.0873,-0.25 -0.21875,-0.25 l -0.1875,0 c -0.1315,0 -0.21875,0.1185 -0.21875,0.25 l 0,0.46875 c 0,0.1315 0.0873,0.25 0.21875,0.25 l 0.1875,0 c 0.1315,0 0.21875,-0.1185 0.21875,-0.25 l 0,-0.0625 0.33594,0 c 0.15056,0 0.32031,0.13816 0.32031,0.30859 0,0.1914 0.15261,0.31641 0.32813,0.31641 l 1.57812,0 0,-1.59375 -1.60156,0 c -0.15943,0 -0.30469,0.16168 -0.30469,0.30859 z"
       id="path3267"
       inkscape:connector-curvature="0"
       sodipodi:nodetypes="cccsssssssscccccccc" />
    <path
       sodipodi:nodetypes="cccsssssssscccccccc"
       inkscape:connector-curvature="0"
       id="path3269"
       d="m 48.81641,997.6582 c 0,0.20757 -0.18286,0.31641 -0.33594,0.31641 l -0.32031,0 0,-0.0625 c 0,-0.1315 -0.0873,-0.25 -0.21875,-0.25 l -0.1875,0 c -0.1315,0 -0.21875,0.1185 -0.21875,0.25 l 0,0.46875 c 0,0.1315 0.0873,0.25 0.21875,0.25 l 0.1875,0 c 0.1315,0 0.21875,-0.1185 0.21875,-0.25 l 0,-0.0625 0.33594,0 c 0.15056,0 0.32031,0.13816 0.32031,0.30859 0,0.1914 0.15261,0.31641 0.32813,0.31641 l 1.57812,0 0,-1.59375 -1.60156,0 c -0.15943,0 -0.30469,0.16168 -0.30469,0.30859 z"
       style="fill:url(#linearGradient3863);fill-opacity:1;stroke:none" />
    <path
       style="fill:url(#linearGradient3865);fill-opacity:1;stroke:none"
       d="m 48.81641,999.92525 c 0,0.20765 -0.18286,0.31645 -0.33594,0.31645 l -0.32031,0 0,-0.062 c 0,-0.1315 -0.0873,-0.25004 -0.21875,-0.25004 l -0.1875,0 c -0.1315,0 -0.21875,0.11854 -0.21875,0.25004 l 0,0.4687 c 0,0.1315 0.0873,0.25 0.21875,0.25 l 0.1875,0 c 0.1315,0 0.21875,-0.1185 0.21875,-0.25 l 0,-0.062 0.33594,0 c 0.15056,0 0.32031,0.1382 0.32031,0.3086 0,0.1914 0.15261,0.3164 0.32813,0.3164 l 1.57812,0 0,-1.59374 -1.60156,0 c -0.15943,0 -0.30469,0.16168 -0.30469,0.30859 z"
       id="path3303"
       inkscape:connector-curvature="0"
       sodipodi:nodetypes="cccsssssssscccccccc" />
    <path
       sodipodi:nodetypes="cccsssssssscccccccc"
       inkscape:connector-curvature="0"
       id="path3305"
       d="m 47.1836,1001.0545 c 0,0.2076 0.18286,0.3164 0.33594,0.3164 l 0.32031,0 0,-0.062 c 0,-0.1315 0.0873,-0.25 0.21875,-0.25 l 0.1875,0 c 0.1315,0 0.21875,0.1185 0.21875,0.25 l 0,0.4688 c 0,0.1315 -0.0873,0.25 -0.21875,0.25 l -0.1875,0 c -0.1315,0 -0.21875,-0.1185 -0.21875,-0.25 l 0,-0.062 -0.33594,0 c -0.15056,0 -0.32031,0.1381 -0.32031,0.3086 0,0.1914 -0.15261,0.3164 -0.32813,0.3164 l -1.57812,0 0,-1.5938 1.60156,0 c 0.15943,0 0.30469,0.1617 0.30469,0.3086 z"
       style="fill:url(#linearGradient3867);fill-opacity:1;stroke:none" />
    <path
       style="fill:url(#linearGradient3869);fill-opacity:1;stroke:none"
       d="m 47.1836,998.78837 c 0,0.20757 0.18286,0.31641 0.33594,0.31641 l 0.32031,0 0,-0.0625 c 0,-0.1315 0.0873,-0.25 0.21875,-0.25 l 0.1875,0 c 0.1315,0 0.21875,0.1185 0.21875,0.25 l 0,0.46875 c 0,0.1315 -0.0873,0.25 -0.21875,0.25 l -0.1875,0 c -0.1315,0 -0.21875,-0.1185 -0.21875,-0.25 l 0,-0.0625 -0.33594,0 c -0.15056,0 -0.32031,0.13816 -0.32031,0.30859 0,0.19141 -0.15261,0.31638 -0.32813,0.31638 l -1.57812,0 0,-1.59372 1.60156,0 c 0.15943,0 0.30469,0.16168 0.30469,0.30859 z"
       id="path3307"
       inkscape:connector-curvature="0"
       sodipodi:nodetypes="cccsssssssscccccccc" />
    <path
       sodipodi:nodetypes="cccsssssssscccccccc"
       inkscape:connector-curvature="0"
       id="path3309"
       d="m 47.1836,1003.3216 c 0,0.2076 0.18286,0.3164 0.33594,0.3164 l 0.32031,0 0,-0.062 c 0,-0.1315 0.0873,-0.25 0.21875,-0.25 l 0.1875,0 c 0.1315,0 0.21875,0.1185 0.21875,0.25 l 0,0.4688 c 0,0.1315 -0.0873,0.25 -0.21875,0.25 l -0.1875,0 c -0.1315,0 -0.21875,-0.1185 -0.21875,-0.25 l 0,-0.062 -0.33594,0 c -0.15056,0 -0.32031,0.1381 -0.32031,0.3086 0,0.1914 -0.15261,0.3164 -0.32813,0.3164 l -1.57812,0 0,-1.5938 1.60156,0 c 0.15943,0 0.30469,0.1617 0.30469,0.3086 z"
       style="fill:url(#linearGradient3871);fill-opacity:1;stroke:none" />
    <path
       sodipodi:nodetypes="cccsssssssscccccccc"
       inkscape:connector-curvature="0"
       id="path3311"
       d="m 48.81641,1002.1933 c 0,0.2076 -0.18286,0.3164 -0.33594,0.3164 l -0.32031,0 0,-0.062 c 0,-0.1315 -0.0873,-0.25 -0.21875,-0.25 l -0.1875,0 c -0.1315,0 -0.21875,0.1185 -0.21875,0.25 l 0,0.4688 c 0,0.1315 0.0873,0.25 0.21875,0.25 l 0.1875,0 c 0.1315,0 0.21875,-0.1185 0.21875,-0.25 l 0,-0.062 0.33594,0 c 0.15056,0 0.32031,0.1381 0.32031,0.3086 0,0.1914 0.15261,0.3164 0.32813,0.3164 l 1.57812,0 0,-1.5938 -1.60156,0 c -0.15943,0 -0.30469,0.1617 -0.30469,0.3086 z"
       style="fill:url(#linearGradient3873);fill-opacity:1;stroke:none" />
  </g>
</svg>
